<svg width="126" height="48" viewBox="0 0 126 48" fill="none" xmlns="http://www.w3.org/2000/svg">
<g clip-path="url(#clip0)">
<path d="M34.8974 34.7053C34.4876 34.7053 34.1462 34.8453 33.8047 35.1252C31.4827 37.4342 28.5462 38.9036 25.2681 39.3934C17.0047 40.5129 9.28762 34.5654 8.19494 26.0989C7.6486 21.9706 8.74128 17.9123 11.1315 14.6237C13.5901 11.3351 17.1413 9.16597 21.1705 8.60621C24.7901 8.11641 28.4779 8.95606 31.4827 10.9852C31.8925 11.2651 32.0974 11.6849 32.0974 12.1047C32.0974 12.8744 31.551 13.5042 30.7998 13.5042C30.5949 13.5042 30.3901 13.4342 30.1852 13.3642C27.9315 11.8948 24.9266 11.0552 22.2632 11.2651C22.1266 11.2651 21.9901 11.2651 21.9218 11.2651H21.7852C21.6486 11.2651 21.5803 11.2651 21.4437 11.3351C15.5705 12.0348 13.3169 15.8832 13.7266 19.3817C14.3413 24.8394 18.7803 25.1893 22.7413 25.5392C26.0876 25.819 28.9559 26.0289 29.2974 29.1077C29.5705 31.4167 27.7266 33.166 24.5852 33.5858H24.5169C24.3803 33.5858 24.1754 33.6558 23.9705 33.6558C20.351 33.8657 17.0047 32.0464 15.1608 28.8278C14.9559 28.4779 14.6145 28.198 14.273 28.1281C13.8632 27.9881 13.4535 28.0581 13.112 28.268C12.7705 28.4779 12.4974 28.8278 12.4291 29.1776C12.2925 29.5975 12.3608 30.0173 12.5657 30.3671C14.8193 34.4254 19.0535 36.8744 23.6291 36.7345C23.7657 36.7345 23.9705 36.7345 24.1071 36.7345C24.1754 36.7345 24.2437 36.7345 24.2437 36.7345L24.8584 36.6645C27.5218 36.3147 29.5705 35.405 30.8681 34.0056C32.1657 32.6062 32.7803 30.717 32.5754 28.6878C31.9608 23.1601 27.4535 22.7403 23.4242 22.3905C20.1462 22.1106 17.2779 21.8307 16.9364 18.9619C16.7315 17.1426 17.8925 14.9036 21.7852 14.4838C21.8535 14.4838 21.9218 14.4838 21.9901 14.4838L22.5364 14.4138C24.6535 14.2738 26.9071 14.9036 28.5462 16.0231C28.5462 16.0231 28.6145 16.0231 28.6145 16.0931C29.2974 16.5129 30.0486 16.6529 30.8681 16.6529C32.0291 16.6529 33.1218 16.1631 33.873 15.2534C34.6925 14.4138 35.1023 13.2943 35.034 12.1047C35.034 10.6354 34.2827 9.23595 33.0535 8.46627C30.1169 6.50708 26.634 5.45752 23.151 5.45752C22.3315 5.45752 21.512 5.52749 20.6925 5.59746C15.912 6.2272 11.6096 8.81612 8.67299 12.7345C5.7364 16.6529 4.43884 21.5508 5.12177 26.5187C6.35104 35.7549 13.9998 42.612 23.0827 42.612C23.2193 42.612 23.3559 42.612 23.4925 42.612C24.1754 42.612 24.8584 42.5421 25.5413 42.4721C29.434 41.9123 32.9852 40.1631 35.7852 37.3642C36.0584 37.0843 36.2632 36.6645 36.2632 36.3147C36.2632 35.8948 36.1266 35.545 35.8535 35.1951C35.6486 34.9152 35.3071 34.7053 34.8974 34.7053Z" fill="white"/>
<path d="M37.7646 5.10566C37.6963 4.96572 37.628 4.89575 37.5598 4.82578C32.5744 0.977382 26.4963 -0.631948 20.2817 0.207702C7.51097 1.95697 -1.50366 14.0619 0.203653 27.2165C1.09146 33.9337 4.77926 40.0211 10.311 43.8695C10.6524 44.0794 10.9256 44.2893 11.1988 44.4992L11.2671 44.5692C11.5402 44.7791 11.8817 44.9191 12.1549 45.059L12.2915 45.129C12.5646 45.2689 12.9061 45.4788 13.1793 45.6188L13.2476 45.6888C13.589 45.8287 13.9305 46.0386 14.2037 46.1785H14.2719C17.1402 47.438 20.2134 48.0678 23.3549 48.0678C23.5598 48.0678 23.6963 48.0678 23.9012 48.0678C24.789 48.0678 25.6768 47.9978 26.4963 47.8579C31.4817 47.1581 36.0573 44.9191 39.6085 41.3506C39.6768 41.2806 39.7451 41.2106 39.8134 41.1406C44.2524 36.5925 46.711 30.5751 46.711 24.1377C46.7793 16.5809 43.5012 9.72374 37.7646 5.10566ZM43.911 23.9978C43.911 29.5955 41.7939 34.8433 37.9012 38.8316C37.8329 38.9016 37.7646 38.9716 37.6963 39.0415C34.5549 42.1902 30.5939 44.1494 26.2232 44.7092C25.3354 44.8491 24.3793 44.9191 23.4232 44.9191C18.9158 44.9191 14.6817 43.4497 11.0622 40.6509C6.69146 37.2223 3.89146 32.3243 3.14024 26.7966C1.6378 15.3214 9.49146 4.75581 20.6915 3.21645C21.6476 3.07651 22.5354 3.00654 23.4915 3.00654C27.9305 3.00654 32.1646 4.47592 35.7841 7.27476C35.8524 7.34473 35.9207 7.34473 35.989 7.4147C40.9744 11.473 43.911 17.4905 43.911 23.9978Z" fill="white"/>
<path d="M37.2198 13.5743C37.0832 13.6443 36.8783 13.7142 36.7417 13.7842C36.6051 13.9241 36.4686 13.9941 36.4003 14.204C36.332 14.344 36.2637 14.4839 36.1954 14.6938C36.1954 14.8338 36.1271 15.0437 36.1954 15.1836C36.1954 15.3236 36.2637 15.4635 36.4003 15.6734C36.5369 15.9533 36.81 16.1632 37.1515 16.2332C37.2881 16.2332 37.3564 16.3031 37.493 16.3031C37.6978 16.3031 37.9027 16.2332 38.1076 16.1632C38.4491 16.0233 38.6539 15.6734 38.7222 15.3236C38.7905 14.9737 38.7222 14.6238 38.5173 14.274C38.4491 14.134 38.3125 13.9941 38.1076 13.8542C37.971 13.7842 37.8344 13.7142 37.6295 13.6443C37.5612 13.5043 37.3564 13.5043 37.2198 13.5743Z" fill="white"/>
<path d="M38.1756 18.542C38.1073 18.7519 37.9707 19.1017 38.1073 19.5215C38.2439 19.8714 38.4487 20.0813 38.7219 20.2912C38.9268 20.4312 39.2 20.5011 39.4048 20.5011C39.4731 20.5011 39.6097 20.5011 39.678 20.5011C40.0195 20.4312 40.2926 20.2213 40.4975 19.8714C40.7024 19.5215 40.7024 19.1717 40.6341 18.8218C40.4975 18.402 40.2926 18.1221 39.9512 17.9822C39.6097 17.8422 39.2682 17.7723 38.9268 17.9122C38.5853 17.9822 38.3804 18.1921 38.1756 18.542Z" fill="white"/>
<path d="M39.9509 22.3904C39.6095 22.3904 39.3363 22.6003 39.0631 22.8102C38.9266 23.0201 38.7217 23.3 38.7217 23.7198C38.7217 24.0697 38.8583 24.3496 39.0631 24.6295C39.3363 24.9093 39.6095 25.0493 39.9509 25.0493H40.0192C40.3607 25.0493 40.6339 24.9093 40.907 24.6994C41.1802 24.4195 41.3168 24.0697 41.3168 23.7198C41.3168 23.37 41.1119 23.0201 40.907 22.7402C40.7022 22.4604 40.3607 22.3204 39.9509 22.3904Z" fill="white"/>
<path d="M39.8144 27.0087C39.4729 26.9387 39.1315 27.0087 38.8583 27.2186C38.5851 27.4285 38.3803 27.6384 38.312 27.9883C38.2437 28.1282 38.2437 28.3381 38.312 28.4781C38.312 28.618 38.3803 28.8279 38.4485 28.9678C38.5851 29.2477 38.8583 29.5276 39.1998 29.5976C39.3364 29.6676 39.4729 29.6676 39.6095 29.6676C39.8144 29.6676 40.0193 29.5976 40.2242 29.5276C40.3607 29.4576 40.4973 29.3177 40.6339 29.1778C40.7705 29.0378 40.8388 28.8979 40.8388 28.688C40.9071 28.3381 40.9071 27.9183 40.7022 27.6384C40.429 27.2885 40.1559 27.0786 39.8144 27.0087Z" fill="white"/>
<path d="M38.38 31.4168C38.1069 31.2768 37.6971 31.2068 37.4239 31.3468C37.0825 31.4168 36.8093 31.6267 36.6727 31.9066C36.6044 32.0465 36.5361 32.1864 36.5361 32.3964C36.5361 32.5363 36.5361 32.7462 36.5361 32.8861C36.6044 33.236 36.8093 33.5159 37.0825 33.7258C37.2874 33.8657 37.5605 33.9357 37.7654 33.9357C37.8337 33.9357 37.9703 33.9357 38.0386 33.9357C38.1752 33.8657 38.38 33.7958 38.5166 33.7258C38.6532 33.5859 38.7898 33.4459 38.9264 33.306C39.1312 32.9561 39.1313 32.6063 39.063 32.2564C38.9264 31.9066 38.7215 31.6267 38.38 31.4168Z" fill="white"/>
<path d="M55.4531 21.2711V10.2856C55.4531 9.79585 55.658 9.58594 56.1361 9.58594H61.8043C62.1458 9.58594 62.2824 9.86582 62.2824 10.4256V10.9854C62.2824 11.5451 62.1458 11.825 61.8043 11.825H58.0482V14.344H61.6678C62.0092 14.344 62.1458 14.6238 62.1458 15.1836V15.7434C62.1458 16.3031 62.0092 16.583 61.6678 16.583H58.0482V21.1311C58.0482 21.481 57.7068 21.6909 57.0239 21.6909H56.4775C55.7946 21.8308 55.4531 21.6209 55.4531 21.2711Z" fill="white"/>
<path d="M65.0142 20.2913C64.0581 19.2417 63.5801 17.7024 63.5801 15.6732C63.5801 13.6441 64.0581 12.1047 65.0142 11.0551C65.9703 10.0056 67.2679 9.4458 69.0435 9.4458C70.8191 9.4458 72.1167 10.0056 73.0728 11.0551C74.0288 12.1047 74.4386 13.6441 74.4386 15.6732C74.4386 17.7024 73.9606 19.2417 73.0728 20.2913C72.1167 21.3408 70.8191 21.9006 69.0435 21.9006C67.2679 21.9006 65.902 21.3408 65.0142 20.2913ZM66.9264 18.612C67.4045 19.3117 68.0874 19.5916 68.9752 19.5916C69.863 19.5916 70.5459 19.2417 71.024 18.612C71.502 17.9123 71.7069 16.9327 71.7069 15.6732C71.7069 14.4137 71.502 13.4341 71.024 12.7344C70.5459 12.1047 69.863 11.7548 68.9752 11.7548C68.0874 11.7548 67.4045 12.1047 66.9264 12.7344C66.4484 13.4341 66.2435 14.3438 66.2435 15.6732C66.2435 17.0027 66.5167 17.9822 66.9264 18.612Z" fill="white"/>
<path d="M76.2148 21.2711V10.1457C76.2148 9.79585 76.5563 9.58594 77.2392 9.58594H78.127C78.6734 9.58594 79.0148 9.72588 79.2197 10.0757L82.2246 15.5335L85.2295 10.0757C85.3661 9.79585 85.7758 9.58594 86.3222 9.58594H87.21C87.8929 9.58594 88.2344 9.79585 88.2344 10.1457V21.2711C88.2344 21.6209 87.8929 21.8308 87.21 21.8308H86.7319C86.049 21.8308 85.7075 21.6209 85.7075 21.2711V14.0641H85.6392L83.1807 18.5422C83.0441 18.7521 82.7709 18.8921 82.4978 18.8921H82.0197C81.7465 18.8921 81.4734 18.7521 81.3368 18.5422L78.8783 14.0641H78.81V21.2711C78.81 21.6209 78.4685 21.8308 77.7856 21.8308H77.3075C76.5563 21.8308 76.2148 21.6209 76.2148 21.2711Z" fill="white"/>
<path d="M89.668 20.3611C89.668 20.0812 89.8045 19.8013 90.0777 19.3815C90.3509 19.0317 90.5558 18.8217 90.7606 18.8217C90.8289 18.8217 90.9655 18.8917 91.1704 19.0317C91.8533 19.4515 92.5363 19.6614 93.2192 19.6614C94.3119 19.6614 94.7899 19.2416 94.7899 18.4019C94.7899 18.0521 94.6533 17.7022 94.3119 17.4923C93.9704 17.2124 93.5607 17.0025 93.0826 16.7926C92.6046 16.5827 92.1265 16.3728 91.6485 16.1629C91.1704 15.883 90.7606 15.5331 90.4192 15.0433C90.0777 14.5535 89.9411 13.8538 89.9411 13.0841C89.9411 12.3145 90.146 11.6148 90.5558 11.055C91.307 10.0754 92.3997 9.51562 93.9704 9.51562C94.8582 9.51562 95.5411 9.65557 96.1558 9.86548C96.7704 10.1454 97.0436 10.4252 97.0436 10.7051C97.0436 10.985 96.907 11.2649 96.7021 11.6847C96.4972 12.0346 96.2924 12.2445 96.0875 12.2445C96.0192 12.2445 95.9509 12.1745 95.8143 12.1045C95.3363 11.8946 94.8582 11.8247 94.2436 11.8247C93.6289 11.8247 93.2192 11.8946 93.0143 12.1045C92.8094 12.3145 92.6728 12.5943 92.6728 12.8742C92.6728 13.1541 92.8094 13.434 93.1509 13.7139C93.4924 13.9238 93.9021 14.2037 94.3802 14.3436C94.8582 14.5535 95.3363 14.7634 95.8143 14.9734C96.2924 15.2532 96.7021 15.6031 97.0436 16.0929C97.385 16.5827 97.5216 17.2124 97.5216 17.9821C97.5216 18.6818 97.385 19.3115 97.1802 19.8713C96.9753 20.3611 96.6338 20.7809 96.2924 21.0608C95.5411 21.6206 94.6533 21.9005 93.5607 21.9005C92.468 21.9005 91.5802 21.7605 90.8289 21.4107C90.0094 21.0608 89.668 20.711 89.668 20.3611Z" fill="white"/>
<path d="M54.7021 38.1341C54.7021 37.8542 54.8387 37.5743 55.1119 37.1545C55.3851 36.8046 55.59 36.5947 55.7948 36.5947C55.8631 36.5947 55.9997 36.6647 56.2046 36.8046C56.8875 37.2244 57.5704 37.4343 58.2534 37.4343C59.3461 37.4343 59.8241 37.0145 59.8241 36.1749C59.8241 35.825 59.6875 35.4752 59.3461 35.2653C59.0046 34.9854 58.5948 34.7755 58.1168 34.5655C57.6387 34.3556 57.1607 34.1457 56.6826 33.9358C56.2046 33.6559 55.7948 33.3061 55.4534 32.8163C55.1119 32.3265 54.9753 31.6268 54.9753 30.8571C54.9753 30.0874 55.1802 29.3877 55.59 28.8279C56.3412 27.8483 57.4339 27.2886 59.0046 27.2886C59.8924 27.2886 60.5753 27.4285 61.19 27.6384C61.8046 27.9183 62.0778 28.1982 62.0778 28.4781C62.0778 28.758 61.9412 29.0378 61.7363 29.4577C61.5314 29.8075 61.3265 30.0174 61.1217 30.0174C61.0534 30.0174 60.9851 29.9475 60.8485 29.8775C60.3704 29.6676 59.8924 29.5976 59.2778 29.5976C58.6631 29.5976 58.2534 29.6676 58.0485 29.8775C57.8436 30.0874 57.707 30.3673 57.707 30.6472C57.707 30.9271 57.8436 31.2069 58.1851 31.4868C58.5265 31.6967 58.9363 31.9766 59.4144 32.1166C59.8924 32.3265 60.3704 32.5364 60.8485 32.7463C61.3265 33.0262 61.7363 33.376 62.0778 33.8658C62.4192 34.3556 62.5558 34.9854 62.5558 35.755C62.5558 36.4548 62.4192 37.0845 62.2144 37.6443C62.0095 38.1341 61.668 38.5539 61.3265 38.8338C60.5753 39.3935 59.6875 39.6734 58.5948 39.6734C57.5022 39.6734 56.6143 39.5335 55.8631 39.1836C55.0436 38.8338 54.7021 38.4839 54.7021 38.1341Z" fill="white"/>
<path d="M63.9219 38.8336V28.0581C63.9219 27.5683 64.1268 27.3584 64.6048 27.3584H70.8194C71.1609 27.3584 71.2975 27.6383 71.2975 28.198V28.7578C71.2975 29.3176 71.1609 29.5975 70.8194 29.5975H66.5853V32.1864H70.4097C70.7511 32.1864 70.8877 32.4663 70.8877 33.026V33.5858C70.8877 34.1456 70.7511 34.4255 70.4097 34.4255H66.5853V37.2243H70.8877C71.2292 37.2243 71.3658 37.5042 71.3658 38.0639V38.6237C71.3658 39.1835 71.2292 39.4634 70.8877 39.4634H64.6731C64.195 39.5333 63.9219 39.2534 63.9219 38.8336Z" fill="white"/>
<path d="M72.7998 33.3757C72.7998 29.2474 74.712 27.2183 78.4681 27.2183C79.2876 27.2183 80.1071 27.3582 80.9266 27.5681C81.7461 27.778 82.0876 28.0579 82.0876 28.4078C82.0876 28.6876 81.951 28.9675 81.6778 29.3874C81.4047 29.8072 81.1998 30.0171 80.9949 30.0171C80.9949 30.0171 80.8583 29.9471 80.6535 29.8772C80.0388 29.5973 79.2876 29.4573 78.4681 29.4573C76.4876 29.4573 75.5315 30.7868 75.5315 33.3757C75.5315 35.9646 76.4876 37.2941 78.3998 37.2941C78.8779 37.2941 79.2876 37.2241 79.6974 37.1541V34.985H78.1949C77.8535 34.985 77.7169 34.7051 77.7169 34.1454V33.5856C77.7169 33.0258 77.8535 32.746 78.1949 32.746H81.6096C82.0876 32.746 82.2925 32.9559 82.2925 33.4457V38.2737C82.2925 38.5535 82.1559 38.7634 81.8827 38.9734C81.6096 39.1833 81.1998 39.3232 80.79 39.3932C79.9705 39.5331 79.151 39.6031 78.3998 39.6031C76.4876 39.6031 75.1218 39.1133 74.1657 38.0637C73.2096 37.0841 72.7998 35.5448 72.7998 33.3757Z" fill="white"/>
<path d="M84.3408 35.475V27.9182C84.3408 27.5683 84.6823 27.3584 85.3652 27.3584H85.9116C86.5945 27.3584 86.9359 27.5683 86.9359 27.9182V35.3351C86.9359 35.9648 87.1408 36.4546 87.5506 36.8744C87.9603 37.2943 88.5067 37.4342 89.1896 37.4342C89.8725 37.4342 90.4189 37.2243 90.8286 36.8744C91.2384 36.4546 91.5116 35.9648 91.5116 35.3351V27.9182C91.5116 27.5683 91.853 27.3584 92.5359 27.3584H93.0823C93.7652 27.3584 94.1067 27.5683 94.1067 27.9182V35.475C94.1067 36.8045 93.6969 37.854 92.8091 38.5537C91.9213 39.2534 90.7603 39.6733 89.1896 39.6733C87.6189 39.6733 86.4579 39.3234 85.5701 38.5537C84.7506 37.7841 84.3408 36.8045 84.3408 35.475Z" fill="white"/>
<path d="M96.292 38.9736V28.0581C96.292 27.5683 96.4969 27.3584 96.9749 27.3584H100.253C103.053 27.3584 104.487 28.4779 104.487 30.647C104.487 31.2768 104.282 31.8365 103.941 32.3263C103.599 32.8161 103.121 33.166 102.507 33.3759V33.4459C102.712 33.5158 102.916 33.7257 103.19 34.0056C103.394 34.2855 103.599 34.6354 103.736 34.9852L105.238 38.8336C105.307 38.9736 105.307 39.1135 105.307 39.1835C105.307 39.3934 104.965 39.5333 104.282 39.5333H103.599C103.053 39.5333 102.712 39.3934 102.643 39.1835L101.277 35.8249C101.072 35.475 100.868 35.1951 100.663 34.9852C100.458 34.8453 100.048 34.7753 99.57 34.7753H98.8871V38.9736C98.8871 39.3234 98.5457 39.5333 97.8627 39.5333H97.3164C96.6335 39.5333 96.292 39.3234 96.292 38.9736ZM98.8871 32.4663H100.526C100.868 32.4663 101.209 32.3263 101.414 32.0464C101.687 31.7666 101.824 31.4167 101.824 30.9969C101.824 30.5771 101.687 30.2972 101.414 30.0173C101.141 29.8074 100.799 29.6674 100.39 29.6674H98.8871V32.4663V32.4663Z" fill="white"/>
<path d="M107.561 38.0637C106.605 37.0142 106.127 35.4748 106.127 33.4457C106.127 31.4165 106.605 29.8772 107.561 28.8276C108.517 27.778 109.815 27.2183 111.59 27.2183C113.366 27.2183 114.664 27.778 115.62 28.8276C116.576 29.8772 116.985 31.4165 116.985 33.4457C116.985 35.4748 116.507 37.0142 115.62 38.0637C114.664 39.1133 113.366 39.6731 111.59 39.6731C109.883 39.6731 108.517 39.1133 107.561 38.0637ZM109.542 36.3844C110.02 37.0841 110.703 37.364 111.59 37.364C112.478 37.364 113.161 37.0142 113.639 36.3844C114.117 35.6847 114.322 34.7051 114.322 33.4457C114.322 32.1862 114.117 31.2066 113.639 30.5069C113.161 29.8772 112.478 29.5273 111.59 29.5273C110.703 29.5273 110.02 29.8772 109.542 30.5069C109.064 31.2066 108.859 32.1162 108.859 33.4457C108.859 34.7751 109.064 35.6847 109.542 36.3844Z" fill="white"/>
<path d="M118.146 38.1341C118.146 37.8542 118.283 37.5743 118.556 37.1545C118.829 36.8046 119.034 36.5947 119.239 36.5947C119.307 36.5947 119.444 36.6647 119.649 36.8046C120.332 37.2244 121.015 37.4343 121.698 37.4343C122.79 37.4343 123.268 37.0145 123.268 36.1749C123.268 35.825 123.132 35.4752 122.79 35.2653C122.449 34.9854 122.039 34.7755 121.561 34.5655C121.083 34.3556 120.605 34.1457 120.127 33.9358C119.649 33.6559 119.239 33.3061 118.898 32.8163C118.556 32.3265 118.42 31.6268 118.42 30.8571C118.42 30.0874 118.625 29.3877 119.034 28.8279C119.786 27.8483 120.878 27.2886 122.449 27.2886C123.337 27.2886 124.02 27.4285 124.634 27.6384C125.249 27.9183 125.522 28.1982 125.522 28.4781C125.522 28.758 125.386 29.0378 125.181 29.4577C124.976 29.8075 124.771 30.0174 124.566 30.0174C124.498 30.0174 124.429 29.9475 124.293 29.8775C123.815 29.6676 123.337 29.5976 122.722 29.5976C122.107 29.5976 121.698 29.6676 121.493 29.8775C121.288 30.0874 121.151 30.3673 121.151 30.6472C121.151 30.9271 121.288 31.2069 121.629 31.4868C121.971 31.6967 122.381 31.9766 122.859 32.1166C123.337 32.3265 123.815 32.5364 124.293 32.7463C124.771 33.0262 125.181 33.376 125.522 33.8658C125.864 34.3556 126 34.9854 126 35.755C126 36.4548 125.864 37.0845 125.659 37.6443C125.454 38.1341 125.112 38.5539 124.771 38.8338C124.02 39.3935 123.132 39.6734 122.039 39.6734C120.946 39.6734 120.059 39.5335 119.307 39.1836C118.556 38.8338 118.146 38.4839 118.146 38.1341Z" fill="white"/>
</g>
<defs>
<clipPath id="clip0">
<rect width="126" height="48" fill="white"/>
</clipPath>
</defs>
</svg>
