<?xml version="1.0" encoding="utf-8"?>
<!-- Generator: Adobe Illustrator 21.0.2, SVG Export Plug-In . SVG Version: 6.00 Build 0)  -->
<svg version="1.1" id="Capa_1" xmlns="http://www.w3.org/2000/svg" xmlns:xlink="http://www.w3.org/1999/xlink" x="0px" y="0px"
	 viewBox="0 0 180 180" style="enable-background:new 0 0 180 180;" xml:space="preserve">
<style type="text/css">
	.st0{clip-path:url(#SVGID_2_);}
	.st1{fill:#FFFFFF;}
	.st2{fill:#E6E6E6;}
	.st3{clip-path:url(#SVGID_4_);}
	.st4{fill:#FFD78F;}
	.st5{fill:#B3B3B3;}
</style>
<g>
	<defs>
		<rect id="SVGID_1_" x="55.2" y="36.7" width="77.8" height="113.8"/>
	</defs>
	<clipPath id="SVGID_2_">
		<use xlink:href="#SVGID_1_"  style="overflow:visible;"/>
	</clipPath>
	<g class="st0">
		<path class="st1" d="M129.1,40.6h-71v106.5h71V40.6z"/>
		<path class="st2" d="M127.8,150.5H60.4c-2.8,0-5.2-2.3-5.2-5.2V41.9c0-2.9,2.3-5.2,5.2-5.2h67.4c2.8,0,5.2,2.3,5.2,5.2v103.4
			C133,148.1,130.7,150.5,127.8,150.5z M60.4,41c-0.5,0-0.9,0.4-0.9,0.9v103.4c0,0.5,0.4,0.9,0.9,0.9h67.4c0.5,0,0.9-0.4,0.9-0.9
			V41.9c0-0.5-0.4-0.9-0.9-0.9H60.4z"/>
	</g>
</g>
<g>
	<defs>
		<rect id="SVGID_3_" x="46" y="30" width="77.8" height="113.8"/>
	</defs>
	<clipPath id="SVGID_4_">
		<use xlink:href="#SVGID_3_"  style="overflow:visible;"/>
	</clipPath>
	<g class="st3">
		<path class="st1" d="M119.9,33.9h-71v106.5h71V33.9z"/>
		<path class="st4" d="M72.2,65.3h-9.3c-2,0-3.6-1.6-3.6-3.6v-9.3c0-2,1.6-3.6,3.6-3.6h9.3c2,0,3.6,1.6,3.6,3.6v9.3
			C75.8,63.7,74.2,65.3,72.2,65.3z"/>
		<path class="st4" d="M71.4,90.4h-9.3c-2,0-3.6-1.6-3.6-3.6v-9.3c0-2,1.6-3.6,3.6-3.6h9.3c2,0,3.6,1.6,3.6,3.6v9.3
			C74.9,88.8,73.3,90.4,71.4,90.4z"/>
		<path class="st2" d="M79.6,43.8L66.5,56.9l-1.4-1.4c-0.6-0.6-1.7-0.4-2.2,0c-0.6,0.6-0.6,1.6,0,2.2l2.5,2.5c0.6,0.6,1.6,0.6,2.2,0
			L81.8,46c0.6-0.6,0.6-1.6,0-2.2C81.2,43.2,80.2,43.2,79.6,43.8z"/>
		<path class="st2" d="M79.3,68.6L66.2,81.7l-1.4-1.4c-0.6-0.6-1.7-0.4-2.2,0c-0.6,0.6-0.6,1.6,0,2.2l2.5,2.5c0.6,0.6,1.6,0.6,2.2,0
			l14.2-14.2c0.6-0.6,0.6-1.6,0-2.2C80.8,68,79.9,68,79.3,68.6z"/>
		<path class="st5" d="M113.1,129.5c1.1,0,2,0.9,2,2s-0.9,2-2,2s-2-0.9-2-2S112,129.5,113.1,129.5z"/>
		<path class="st5" d="M88.2,129.5h18.1c1.1,0,2,0.9,2,2s-0.9,2-2,2H88.2c-1.1,0-2-0.9-2-2S87.1,129.5,88.2,129.5z"/>
		<path class="st2" d="M118.6,143.8H51.2c-2.8,0-5.2-2.3-5.2-5.2V35.2c0-2.9,2.3-5.2,5.2-5.2h67.4c2.8,0,5.2,2.3,5.2,5.2v103.4
			C123.8,141.4,121.5,143.8,118.6,143.8z M51.2,34.3c-0.5,0-0.9,0.4-0.9,0.9v103.4c0,0.5,0.4,0.9,0.9,0.9h67.4
			c0.5,0,0.9-0.4,0.9-0.9V35.2c0-0.5-0.4-0.9-0.9-0.9H51.2z"/>
		<path class="st4" d="M71.4,115.5h-9.3c-2,0-3.6-1.6-3.6-3.6v-9.3c0-2,1.6-3.6,3.6-3.6h9.3c2,0,3.6,1.6,3.6,3.6v9.3
			C74.9,113.9,73.3,115.5,71.4,115.5z"/>
		<path class="st2" d="M79.3,93.7l-13.1,13.1l-1.4-1.4c-0.6-0.6-1.7-0.4-2.2,0c-0.6,0.6-0.6,1.6,0,2.2l2.5,2.5
			c0.6,0.6,1.6,0.6,2.2,0l14.2-14.2c0.6-0.6,0.6-1.6,0-2.2C80.8,93.1,79.9,93.1,79.3,93.7z"/>
		<path class="st5" d="M87,61.8c-0.2,0-0.3-0.1-0.5-0.2c-0.1-0.1-0.2-0.3-0.2-0.5v-7.2c0-0.2,0.1-0.3,0.2-0.5
			c0.1-0.1,0.3-0.2,0.5-0.2h4c0.2,0,0.3,0.1,0.5,0.2c0.1,0.1,0.2,0.3,0.2,0.5c0,0.2-0.1,0.3-0.2,0.5c-0.1,0.1-0.3,0.2-0.5,0.2h-2.9
			c-0.1,0-0.1,0-0.1,0.1v1.9c0,0.1,0,0.1,0.1,0.1h2.7c0.2,0,0.3,0.1,0.4,0.2c0.1,0.1,0.2,0.3,0.2,0.4c0,0.2-0.1,0.3-0.2,0.4
			c-0.1,0.1-0.3,0.2-0.4,0.2h-2.7c-0.1,0-0.1,0-0.1,0.1v2.3c0,0.1,0,0.1,0.1,0.1H91c0.2,0,0.3,0.1,0.5,0.2c0.1,0.1,0.2,0.3,0.2,0.5
			s-0.1,0.3-0.2,0.5c-0.1,0.1-0.3,0.2-0.5,0.2H87z"/>
		<path class="st5" d="M94.1,61.8c-0.2,0-0.3-0.1-0.5-0.2c-0.1-0.1-0.2-0.3-0.2-0.5v-7.2c0-0.2,0.1-0.3,0.2-0.5
			c0.1-0.1,0.3-0.2,0.5-0.2h0.3c0.4,0,0.8,0.2,1,0.6l2.9,5.2c0,0,0,0,0,0c0,0,0,0,0,0v-5.1c0-0.2,0.1-0.3,0.2-0.5
			c0.1-0.1,0.3-0.2,0.5-0.2h0.3c0.2,0,0.3,0.1,0.5,0.2c0.1,0.1,0.2,0.3,0.2,0.5v7.2c0,0.2-0.1,0.3-0.2,0.5c-0.1,0.1-0.3,0.2-0.5,0.2
			h-0.3c-0.4,0-0.8-0.2-1-0.6L95,56c0,0,0,0,0,0c0,0,0,0,0,0v5.1c0,0.2-0.1,0.3-0.2,0.5c-0.1,0.1-0.3,0.2-0.5,0.2H94.1z"/>
		<path class="st5" d="M102.3,61.8c-0.2,0-0.3-0.1-0.5-0.2c-0.1-0.1-0.2-0.3-0.2-0.5v-7.2c0-0.2,0.1-0.3,0.2-0.5
			c0.1-0.1,0.3-0.2,0.5-0.2h4c0.2,0,0.3,0.1,0.5,0.2c0.1,0.1,0.2,0.3,0.2,0.5c0,0.2-0.1,0.3-0.2,0.5c-0.1,0.1-0.3,0.2-0.5,0.2h-2.9
			c-0.1,0-0.1,0-0.1,0.1v1.9c0,0.1,0,0.1,0.1,0.1h2.7c0.2,0,0.3,0.1,0.4,0.2c0.1,0.1,0.2,0.3,0.2,0.4c0,0.2-0.1,0.3-0.2,0.4
			c-0.1,0.1-0.3,0.2-0.4,0.2h-2.7c-0.1,0-0.1,0-0.1,0.1v2.3c0,0.1,0,0.1,0.1,0.1h2.9c0.2,0,0.3,0.1,0.5,0.2c0.1,0.1,0.2,0.3,0.2,0.5
			s-0.1,0.3-0.2,0.5c-0.1,0.1-0.3,0.2-0.5,0.2H102.3z"/>
		<path class="st5" d="M87.2,86.9c-0.2,0-0.3-0.1-0.5-0.2c-0.1-0.1-0.2-0.3-0.2-0.5V79c0-0.2,0.1-0.3,0.2-0.5
			c0.1-0.1,0.3-0.2,0.5-0.2h3.9c0.2,0,0.3,0.1,0.5,0.2c0.1,0.1,0.2,0.3,0.2,0.5c0,0.2-0.1,0.3-0.2,0.5c-0.1,0.1-0.3,0.2-0.5,0.2
			h-2.8c-0.1,0-0.1,0-0.1,0.1v2c0,0.1,0,0.1,0.1,0.1h2.6c0.2,0,0.3,0.1,0.4,0.2c0.1,0.1,0.2,0.3,0.2,0.4c0,0.2-0.1,0.3-0.2,0.5
			c-0.1,0.1-0.3,0.2-0.4,0.2h-2.6c-0.1,0-0.1,0-0.1,0.1v3c0,0.2-0.1,0.3-0.2,0.5c-0.1,0.1-0.3,0.2-0.5,0.2H87.2z"/>
		<path class="st5" d="M94.1,86.9c-0.2,0-0.3-0.1-0.5-0.2c-0.1-0.1-0.2-0.3-0.2-0.5V79c0-0.2,0.1-0.3,0.2-0.5
			c0.1-0.1,0.3-0.2,0.5-0.2h4c0.2,0,0.3,0.1,0.5,0.2c0.1,0.1,0.2,0.3,0.2,0.5c0,0.2-0.1,0.3-0.2,0.5c-0.1,0.1-0.3,0.2-0.5,0.2h-2.9
			c-0.1,0-0.1,0-0.1,0.1v1.9c0,0.1,0,0.1,0.1,0.1h2.7c0.2,0,0.3,0.1,0.4,0.2c0.1,0.1,0.2,0.3,0.2,0.4c0,0.2-0.1,0.3-0.2,0.4
			C98.2,82.9,98,83,97.9,83h-2.7c-0.1,0-0.1,0-0.1,0.1v2.3c0,0.1,0,0.1,0.1,0.1H98c0.2,0,0.3,0.1,0.5,0.2c0.1,0.1,0.2,0.3,0.2,0.5
			c0,0.2-0.1,0.3-0.2,0.5c-0.1,0.1-0.3,0.2-0.5,0.2H94.1z"/>
		<path class="st5" d="M102.1,83.1v2.5c0,0.1,0,0.1,0.1,0.1c0.3,0,0.5,0.1,0.8,0.1c0.6,0,1.1-0.1,1.4-0.4c0.3-0.2,0.5-0.6,0.5-1.1
			c0-0.4-0.2-0.8-0.5-1c-0.3-0.2-0.9-0.3-1.7-0.3L102.1,83.1C102.1,83,102.1,83,102.1,83.1z M102.1,79.7v2c0,0.1,0,0.1,0.1,0.1h0.3
			c0.7,0,1.2-0.1,1.6-0.3c0.3-0.2,0.5-0.5,0.5-0.9c0-0.4-0.1-0.7-0.4-0.8c-0.3-0.2-0.7-0.3-1.3-0.3c-0.3,0-0.5,0-0.7,0
			C102.1,79.6,102.1,79.6,102.1,79.7z M101.1,86.9c-0.2,0-0.3-0.1-0.5-0.2c-0.1-0.1-0.2-0.3-0.2-0.5v-7.1c0-0.2,0.1-0.4,0.2-0.5
			c0.1-0.1,0.3-0.2,0.5-0.2c0.6-0.1,1.1-0.1,1.7-0.1c2.2,0,3.3,0.7,3.3,2.1c0,0.5-0.2,0.9-0.5,1.2c-0.3,0.4-0.7,0.6-1.3,0.7
			c0,0,0,0,0,0c0,0,0,0,0,0c0.6,0.1,1.1,0.3,1.5,0.7c0.4,0.4,0.6,0.8,0.6,1.4c0,0.9-0.3,1.5-0.8,1.9c-0.6,0.4-1.4,0.6-2.6,0.6
			C102.3,87,101.7,87,101.1,86.9z"/>
		<path class="st5" d="M87.9,112c-0.2,0-0.3-0.1-0.5-0.2c-0.1-0.1-0.2-0.3-0.2-0.5v-7.2c0-0.2,0.1-0.3,0.2-0.5
			c0.1-0.1,0.3-0.2,0.5-0.2h0.3c0.2,0,0.4,0.1,0.6,0.2c0.2,0.1,0.3,0.3,0.4,0.4l2,4.4c0,0,0,0,0,0s0,0,0,0l2-4.4
			c0.1-0.2,0.2-0.3,0.4-0.4c0.2-0.1,0.4-0.2,0.6-0.2h0.3c0.2,0,0.3,0.1,0.5,0.2c0.1,0.1,0.2,0.3,0.2,0.5v7.2c0,0.2-0.1,0.3-0.2,0.5
			c-0.1,0.1-0.3,0.2-0.5,0.2h-0.3c-0.2,0-0.3-0.1-0.5-0.2c-0.1-0.1-0.2-0.3-0.2-0.5v-5.1c0,0,0,0,0,0c0,0,0,0,0,0l-1.4,3
			c-0.1,0.2-0.2,0.3-0.4,0.4c-0.2,0.1-0.4,0.2-0.6,0.2h-0.1c-0.2,0-0.4-0.1-0.6-0.2c-0.2-0.1-0.3-0.3-0.4-0.4l-1.4-3c0,0,0,0,0,0
			c0,0,0,0,0,0v5.1c0,0.2-0.1,0.3-0.2,0.5c-0.1,0.1-0.3,0.2-0.5,0.2H87.9z"/>
		<path class="st5" d="M99.9,104.9l-1,3.7c0,0,0,0,0,0.1c0,0,0,0,0.1,0h1.9c0,0,0,0,0.1,0c0,0,0,0,0-0.1L99.9,104.9
			C100,104.9,100,104.9,99.9,104.9C99.9,104.9,99.9,104.9,99.9,104.9z M96.9,112c-0.2,0-0.3-0.1-0.4-0.2c-0.1-0.1-0.1-0.3-0.1-0.4
			l2.4-7.3c0.1-0.2,0.2-0.3,0.3-0.5c0.2-0.1,0.3-0.2,0.5-0.2h0.4c0.2,0,0.4,0.1,0.5,0.2c0.2,0.1,0.3,0.3,0.3,0.5l2.4,7.3
			c0.1,0.2,0,0.3-0.1,0.4c-0.1,0.1-0.2,0.2-0.4,0.2h-0.4c-0.2,0-0.4-0.1-0.5-0.2c-0.2-0.1-0.3-0.3-0.3-0.5l-0.4-1.3
			c0-0.1-0.1-0.1-0.1-0.1h-2.6c-0.1,0-0.1,0-0.1,0.1l-0.4,1.3c0,0.2-0.2,0.3-0.3,0.5c-0.2,0.1-0.3,0.2-0.5,0.2H96.9z"/>
		<path class="st5" d="M106.3,104.8v2.5c0,0.1,0,0.1,0.1,0.1h0.6c1.4,0,2.1-0.5,2.1-1.5c0-0.9-0.6-1.3-1.9-1.3c-0.2,0-0.5,0-0.7,0.1
			C106.3,104.7,106.3,104.7,106.3,104.8z M105.3,112c-0.2,0-0.3-0.1-0.5-0.2c-0.1-0.1-0.2-0.3-0.2-0.5v-7.2c0-0.2,0.1-0.4,0.2-0.5
			c0.1-0.1,0.3-0.2,0.5-0.2c0.7-0.1,1.3-0.1,1.9-0.1c1.1,0,2,0.2,2.6,0.6c0.6,0.4,0.9,1,0.9,1.8c0,0.6-0.2,1-0.5,1.5
			c-0.3,0.4-0.7,0.7-1.2,0.9c0,0,0,0,0,0c0,0,0,0,0,0c0.4,0.2,0.7,0.7,1,1.4l0.7,1.8c0.1,0.1,0,0.3-0.1,0.4
			c-0.1,0.1-0.2,0.2-0.4,0.2h-0.4c-0.2,0-0.4-0.1-0.6-0.2c-0.2-0.1-0.3-0.3-0.4-0.5l-0.7-1.8c-0.1-0.4-0.3-0.6-0.5-0.7
			c-0.2-0.1-0.5-0.2-0.9-0.2h-0.5c-0.1,0-0.1,0-0.1,0.1v2.6c0,0.2-0.1,0.3-0.2,0.5c-0.1,0.1-0.3,0.2-0.5,0.2H105.3z"/>
	</g>
</g>
</svg>
