<svg width="104" height="144" viewBox="0 0 104 144" fill="none" xmlns="http://www.w3.org/2000/svg">
<path d="M99.3329 12.6449H14.4316V139.928H99.3329V12.6449Z" fill="white"/>
<path d="M97.8281 144H17.1719C13.7698 144 11 141.225 11 137.787V14.1832C11 10.7749 13.7698 8 17.1719 8H97.798C101.2 8 103.97 10.7749 103.97 14.1832V137.787C104 141.225 101.23 144 97.8281 144ZM17.1719 13.1275C16.5999 13.1275 16.1182 13.6101 16.1182 14.1832V137.787C16.1182 138.36 16.5999 138.842 17.1719 138.842H97.798C98.37 138.842 98.8517 138.36 98.8517 137.787V14.1832C98.8517 13.6101 98.37 13.1275 97.798 13.1275H17.1719Z" fill="#E6E6E6"/>
<path d="M88.3329 4.6449H3.43164V131.928H88.3329V4.6449Z" fill="white"/>
<path d="M31.3545 42.1893H20.2451C17.8967 42.1893 16 40.2892 16 37.9365V26.8068C16 24.4542 17.8967 22.554 20.2451 22.554H31.3545C33.7028 22.554 35.5995 24.4542 35.5995 26.8068V37.9365C35.5694 40.2892 33.6727 42.1893 31.3545 42.1893Z" fill="#FFD78F"/>
<path d="M30.3545 72.2329H19.2451C16.8967 72.2329 15 70.3327 15 67.9801V56.8504C15 54.4977 16.8967 52.5975 19.2451 52.5975H30.3545C32.7028 52.5975 34.5996 54.4977 34.5996 56.8504V67.9801C34.5694 70.3327 32.6727 72.2329 30.3545 72.2329Z" fill="#FFD78F"/>
<path d="M40.175 16.5304L24.5325 32.2015L22.8248 30.4907C22.1189 29.7836 20.8211 29.966 20.2518 30.4907C19.5232 31.175 19.546 32.3612 20.2518 33.0683L23.2574 36.0566C23.9632 36.7637 25.1245 36.7637 25.8303 36.0566L42.748 19.108C43.4538 18.4009 43.4538 17.2375 42.748 16.5304C42.0421 15.8232 40.8809 15.8232 40.175 16.5304Z" fill="#E6E6E6"/>
<path d="M39.7776 46.1656L24.135 61.8368L22.4273 60.1259C21.7215 59.4188 20.4236 59.6013 19.8544 60.1259C19.1257 60.8103 19.1485 61.9964 19.8544 62.7036L22.8599 65.6918C23.5658 66.399 24.727 66.399 25.4329 65.6918L42.3505 48.7433C43.0563 48.0361 43.0563 46.8728 42.3505 46.1656C41.6446 45.4585 40.4834 45.4585 39.7776 46.1656Z" fill="#E6E6E6"/>
<path d="M80.2045 118.958C81.5292 118.958 82.613 120.044 82.613 121.371C82.613 122.699 81.5292 123.784 80.2045 123.784C78.8797 123.784 77.7959 122.699 77.7959 121.371C77.7959 120.044 78.8797 118.958 80.2045 118.958Z" fill="#B3B3B3"/>
<path d="M50.3988 118.958H72.0757C73.4004 118.958 74.4842 120.044 74.4842 121.371C74.4842 122.699 73.4004 123.784 72.0757 123.784H50.3988C49.0741 123.784 47.9902 122.699 47.9902 121.371C47.9902 120.044 49.0741 118.958 50.3988 118.958Z" fill="#B3B3B3"/>
<path d="M86.8281 136H6.1719C2.76983 136 0 133.225 0 129.787V6.18319C0 2.77489 2.76983 0 6.1719 0H86.798C90.2001 0 92.9699 2.77489 92.9699 6.18319V129.787C93 133.225 90.2302 136 86.8281 136ZM6.1719 5.12752C5.59987 5.12752 5.11816 5.61011 5.11816 6.18319V129.787C5.11816 130.36 5.59987 130.842 6.1719 130.842H86.798C87.37 130.842 87.8517 130.36 87.8517 129.787V6.18319C87.8517 5.61011 87.37 5.12752 86.798 5.12752H6.1719Z" fill="#E6E6E6"/>
<path d="M49.0534 38C48.8387 38 48.6521 37.9207 48.4934 37.762C48.3347 37.6033 48.2554 37.4167 48.2554 37.202V28.578C48.2554 28.3633 48.3347 28.1767 48.4934 28.018C48.6521 27.8593 48.8387 27.78 49.0534 27.78H53.8134C54.0281 27.78 54.2147 27.8593 54.3734 28.018C54.5321 28.1767 54.6114 28.3633 54.6114 28.578C54.6114 28.7927 54.5321 28.9793 54.3734 29.138C54.2147 29.2873 54.0281 29.362 53.8134 29.362H50.3414C50.2574 29.362 50.2154 29.404 50.2154 29.488V31.742C50.2154 31.826 50.2574 31.868 50.3414 31.868H53.5754C53.7901 31.868 53.9674 31.9427 54.1074 32.092C54.2567 32.2413 54.3314 32.4187 54.3314 32.624C54.3314 32.8293 54.2567 33.0067 54.1074 33.156C53.9674 33.296 53.7901 33.366 53.5754 33.366H50.3414C50.2574 33.366 50.2154 33.408 50.2154 33.492V36.292C50.2154 36.376 50.2574 36.418 50.3414 36.418H53.8134C54.0281 36.418 54.2147 36.4973 54.3734 36.656C54.5321 36.8053 54.6114 36.9873 54.6114 37.202C54.6114 37.4167 54.5321 37.6033 54.3734 37.762C54.2147 37.9207 54.0281 38 53.8134 38H49.0534ZM57.4613 38C57.2466 38 57.06 37.9207 56.9013 37.762C56.752 37.6033 56.6773 37.4167 56.6773 37.202V28.578C56.6773 28.3633 56.752 28.1767 56.9013 28.018C57.06 27.8593 57.2466 27.78 57.4613 27.78H57.7693C58.3013 27.78 58.6933 28.0133 58.9453 28.48L62.4033 34.724C62.4033 34.7333 62.408 34.738 62.4173 34.738C62.4266 34.738 62.4313 34.7333 62.4313 34.724V28.578C62.4313 28.3633 62.5106 28.1767 62.6693 28.018C62.828 27.8593 63.0146 27.78 63.2293 27.78H63.5373C63.752 27.78 63.934 27.8593 64.0833 28.018C64.242 28.1767 64.3213 28.3633 64.3213 28.578V37.202C64.3213 37.4167 64.242 37.6033 64.0833 37.762C63.934 37.9207 63.752 38 63.5373 38H63.2293C62.6973 38 62.3053 37.7667 62.0533 37.3L58.5953 31.056C58.5953 31.0467 58.5906 31.042 58.5813 31.042C58.572 31.042 58.5673 31.0467 58.5673 31.056V37.202C58.5673 37.4167 58.488 37.6033 58.3293 37.762C58.1706 37.9207 57.984 38 57.7693 38H57.4613ZM67.3327 38C67.118 38 66.9314 37.9207 66.7727 37.762C66.614 37.6033 66.5347 37.4167 66.5347 37.202V28.578C66.5347 28.3633 66.614 28.1767 66.7727 28.018C66.9314 27.8593 67.118 27.78 67.3327 27.78H72.0927C72.3074 27.78 72.494 27.8593 72.6527 28.018C72.8114 28.1767 72.8907 28.3633 72.8907 28.578C72.8907 28.7927 72.8114 28.9793 72.6527 29.138C72.494 29.2873 72.3074 29.362 72.0927 29.362H68.6207C68.5367 29.362 68.4947 29.404 68.4947 29.488V31.742C68.4947 31.826 68.5367 31.868 68.6207 31.868H71.8547C72.0694 31.868 72.2467 31.9427 72.3867 32.092C72.536 32.2413 72.6107 32.4187 72.6107 32.624C72.6107 32.8293 72.536 33.0067 72.3867 33.156C72.2467 33.296 72.0694 33.366 71.8547 33.366H68.6207C68.5367 33.366 68.4947 33.408 68.4947 33.492V36.292C68.4947 36.376 68.5367 36.418 68.6207 36.418H72.0927C72.3074 36.418 72.494 36.4973 72.6527 36.656C72.8114 36.8053 72.8907 36.9873 72.8907 37.202C72.8907 37.4167 72.8114 37.6033 72.6527 37.762C72.494 37.9207 72.3074 38 72.0927 38H67.3327Z" fill="#B3B3B3"/>
<path d="M49.2435 67C49.0288 67 48.8422 66.9207 48.6835 66.762C48.5342 66.6033 48.4595 66.4167 48.4595 66.202V57.578C48.4595 57.3633 48.5342 57.1767 48.6835 57.018C48.8422 56.8593 49.0288 56.78 49.2435 56.78H53.8635C54.0782 56.78 54.2648 56.8593 54.4235 57.018C54.5822 57.1767 54.6615 57.3633 54.6615 57.578C54.6615 57.7927 54.5822 57.9793 54.4235 58.138C54.2648 58.2873 54.0782 58.362 53.8635 58.362H50.5315C50.4568 58.362 50.4195 58.404 50.4195 58.488V60.938C50.4195 61.0127 50.4568 61.05 50.5315 61.05H53.6255C53.8308 61.05 54.0082 61.1247 54.1575 61.274C54.3068 61.414 54.3815 61.5913 54.3815 61.806C54.3815 62.0207 54.3068 62.2027 54.1575 62.352C54.0082 62.492 53.8308 62.562 53.6255 62.562H50.5315C50.4568 62.562 50.4195 62.5993 50.4195 62.674V66.202C50.4195 66.4167 50.3402 66.6033 50.1815 66.762C50.0228 66.9207 49.8362 67 49.6215 67H49.2435ZM57.4606 67C57.246 67 57.0593 66.9207 56.9006 66.762C56.742 66.6033 56.6626 66.4167 56.6626 66.202V57.578C56.6626 57.3633 56.742 57.1767 56.9006 57.018C57.0593 56.8593 57.246 56.78 57.4606 56.78H62.2206C62.4353 56.78 62.622 56.8593 62.7806 57.018C62.9393 57.1767 63.0186 57.3633 63.0186 57.578C63.0186 57.7927 62.9393 57.9793 62.7806 58.138C62.622 58.2873 62.4353 58.362 62.2206 58.362H58.7486C58.6646 58.362 58.6226 58.404 58.6226 58.488V60.742C58.6226 60.826 58.6646 60.868 58.7486 60.868H61.9826C62.1973 60.868 62.3746 60.9427 62.5146 61.092C62.664 61.2413 62.7386 61.4187 62.7386 61.624C62.7386 61.8293 62.664 62.0067 62.5146 62.156C62.3746 62.296 62.1973 62.366 61.9826 62.366H58.7486C58.6646 62.366 58.6226 62.408 58.6226 62.492V65.292C58.6226 65.376 58.6646 65.418 58.7486 65.418H62.2206C62.4353 65.418 62.622 65.4973 62.7806 65.656C62.9393 65.8053 63.0186 65.9873 63.0186 66.202C63.0186 66.4167 62.9393 66.6033 62.7806 66.762C62.622 66.9207 62.4353 67 62.2206 67H57.4606ZM67.0165 62.464V65.404C67.0165 65.4787 67.0585 65.5253 67.1425 65.544C67.4692 65.5907 67.7772 65.614 68.0665 65.614C68.8412 65.614 69.4058 65.474 69.7605 65.194C70.1245 64.9047 70.3065 64.466 70.3065 63.878C70.3065 63.3553 70.0965 62.9727 69.6765 62.73C69.2658 62.478 68.5798 62.352 67.6185 62.352H67.1285C67.0538 62.352 67.0165 62.3893 67.0165 62.464ZM67.0165 58.376V60.77C67.0165 60.854 67.0538 60.896 67.1285 60.896H67.5345C68.4025 60.896 69.0278 60.7793 69.4105 60.546C69.8025 60.3033 69.9985 59.9487 69.9985 59.482C69.9985 59.034 69.8398 58.7027 69.5225 58.488C69.2052 58.2733 68.6872 58.166 67.9685 58.166C67.6418 58.166 67.3618 58.1847 67.1285 58.222C67.0538 58.2407 67.0165 58.292 67.0165 58.376ZM65.8685 67.028C65.6445 67.0093 65.4578 66.916 65.3085 66.748C65.1592 66.5707 65.0845 66.3653 65.0845 66.132V57.648C65.0845 57.4147 65.1592 57.214 65.3085 57.046C65.4578 56.8687 65.6492 56.7707 65.8825 56.752C66.5732 56.6773 67.2405 56.64 67.8845 56.64C70.4978 56.64 71.8045 57.494 71.8045 59.202C71.8045 59.7713 71.6132 60.266 71.2305 60.686C70.8478 61.106 70.3438 61.3767 69.7185 61.498C69.7092 61.498 69.7045 61.5027 69.7045 61.512C69.7045 61.5307 69.7092 61.54 69.7185 61.54C70.4838 61.652 71.0812 61.9367 71.5105 62.394C71.9492 62.842 72.1685 63.3973 72.1685 64.06C72.1685 65.0867 71.8325 65.8567 71.1605 66.37C70.4885 66.8833 69.4432 67.14 68.0245 67.14C67.3152 67.14 66.5965 67.1027 65.8685 67.028Z" fill="#B3B3B3"/>
<path d="M30.3545 102.233H19.2451C16.8967 102.233 15 100.333 15 97.9801V86.8504C15 84.4977 16.8967 82.5975 19.2451 82.5975H30.3545C32.7028 82.5975 34.5996 84.4977 34.5996 86.8504V97.9801C34.5694 100.333 32.6727 102.233 30.3545 102.233Z" fill="#FFD78F"/>
<path d="M39.7776 76.1656L24.135 91.8368L22.4273 90.1259C21.7215 89.4188 20.4236 89.6013 19.8544 90.1259C19.1257 90.8103 19.1485 91.9964 19.8544 92.7036L22.8599 95.6918C23.5658 96.399 24.727 96.399 25.4329 95.6918L42.3505 78.7433C43.0563 78.0361 43.0563 76.8728 42.3505 76.1656C41.6446 75.4585 40.4834 75.4585 39.7776 76.1656Z" fill="#E6E6E6"/>
<path d="M50.029 98C49.8143 98 49.6277 97.9207 49.469 97.762C49.3103 97.6033 49.231 97.4167 49.231 97.202V88.578C49.231 88.3633 49.3103 88.1767 49.469 88.018C49.6277 87.8593 49.8143 87.78 50.029 87.78H50.379C50.6217 87.78 50.8457 87.8453 51.051 87.976C51.2563 88.1067 51.4057 88.2793 51.499 88.494L53.949 93.786C53.949 93.7953 53.9537 93.8 53.963 93.8C53.9723 93.8 53.977 93.7953 53.977 93.786L56.427 88.494C56.5203 88.2793 56.6697 88.1067 56.875 87.976C57.0803 87.8453 57.3043 87.78 57.547 87.78H57.953C58.1677 87.78 58.3543 87.8593 58.513 88.018C58.6717 88.1767 58.751 88.3633 58.751 88.578V97.202C58.751 97.4167 58.6717 97.6033 58.513 97.762C58.3543 97.9207 58.1677 98 57.953 98H57.645C57.4303 98 57.2437 97.9207 57.085 97.762C56.9263 97.6033 56.847 97.4167 56.847 97.202V91.112C56.847 91.1027 56.8423 91.098 56.833 91.098C56.8237 91.098 56.819 91.1027 56.819 91.112L55.139 94.71C55.0363 94.9247 54.8777 95.102 54.663 95.242C54.4577 95.3727 54.2383 95.438 54.005 95.438H53.921C53.6877 95.438 53.4637 95.3727 53.249 95.242C53.0437 95.102 52.8897 94.9247 52.787 94.71L51.107 91.112C51.107 91.1027 51.1023 91.098 51.093 91.098C51.0837 91.098 51.079 91.1027 51.079 91.112V97.202C51.079 97.4167 50.9997 97.6033 50.841 97.762C50.6823 97.9207 50.4957 98 50.281 98H50.029ZM64.4755 89.516L63.2435 93.912C63.2341 93.94 63.2388 93.968 63.2575 93.996C63.2761 94.024 63.2995 94.038 63.3275 94.038H65.6515C65.6795 94.038 65.7028 94.024 65.7215 93.996C65.7401 93.968 65.7448 93.94 65.7355 93.912L64.5035 89.516C64.5035 89.5067 64.4988 89.502 64.4895 89.502C64.4801 89.502 64.4755 89.5067 64.4755 89.516ZM60.8495 98C60.6535 98 60.4995 97.9207 60.3875 97.762C60.2755 97.6033 60.2521 97.4307 60.3175 97.244L63.2155 88.536C63.2995 88.312 63.4348 88.13 63.6215 87.99C63.8175 87.85 64.0321 87.78 64.2655 87.78H64.7695C65.0121 87.78 65.2268 87.85 65.4135 87.99C65.6095 88.13 65.7448 88.312 65.8195 88.536L68.7175 97.244C68.7828 97.4307 68.7595 97.6033 68.6475 97.762C68.5355 97.9207 68.3815 98 68.1855 98H67.6815C67.4575 98 67.2475 97.93 67.0515 97.79C66.8648 97.6407 66.7388 97.454 66.6735 97.23L66.2255 95.648C66.2161 95.5733 66.1648 95.536 66.0715 95.536H62.9075C62.8235 95.536 62.7721 95.5733 62.7535 95.648L62.3055 97.23C62.2495 97.454 62.1235 97.6407 61.9275 97.79C61.7408 97.93 61.5308 98 61.2975 98H60.8495ZM72.04 89.376V92.414C72.04 92.4887 72.082 92.526 72.166 92.526H72.866C74.5273 92.526 75.358 91.9333 75.358 90.748C75.358 89.6933 74.588 89.166 73.048 89.166C72.768 89.166 72.474 89.1893 72.166 89.236C72.082 89.2547 72.04 89.3013 72.04 89.376ZM70.906 98C70.6913 98 70.5046 97.9207 70.346 97.762C70.1873 97.6033 70.108 97.4167 70.108 97.202V88.648C70.108 88.424 70.1826 88.2233 70.332 88.046C70.4813 87.8687 70.668 87.7707 70.892 87.752C71.6853 87.6773 72.4506 87.64 73.188 87.64C74.56 87.64 75.5866 87.8967 76.268 88.41C76.9493 88.914 77.29 89.628 77.29 90.552C77.29 91.2147 77.108 91.798 76.744 92.302C76.3893 92.806 75.9086 93.1607 75.302 93.366C75.2926 93.366 75.288 93.3707 75.288 93.38C75.288 93.3987 75.2926 93.408 75.302 93.408C75.75 93.688 76.1326 94.2387 76.45 95.06L77.29 97.258C77.3553 97.4353 77.332 97.6033 77.22 97.762C77.1173 97.9207 76.9726 98 76.786 98H76.352C76.1093 98 75.89 97.9347 75.694 97.804C75.498 97.664 75.358 97.482 75.274 97.258L74.49 95.102C74.322 94.654 74.1306 94.36 73.916 94.22C73.7013 94.08 73.3326 94.01 72.81 94.01H72.166C72.082 94.01 72.04 94.052 72.04 94.136V97.202C72.04 97.4167 71.9606 97.6033 71.802 97.762C71.6526 97.9207 71.4706 98 71.256 98H70.906Z" fill="#B3B3B3"/>
</svg>
