<svg width="151" height="132" viewBox="0 0 151 132" fill="none" xmlns="http://www.w3.org/2000/svg">
<path d="M46.7024 33.927L27.2485 50.5265L47.2504 71.5888L36.2905 81.0043L14.6446 93.5219L3.13672 109.033V122.095L14.0966 123.728L25.6045 119.918L43.4692 94.8825L57.1143 81.0043L78.2121 100.053L96.5152 85.1133L94.652 79.3715C94.652 79.3715 94.378 79.3715 93.556 79.3715C92.734 79.3715 46.7024 33.927 46.7024 33.927Z" fill="white"/>
<path d="M77.6644 2.63281L48.3467 33.9269L95.1729 81.0042L125.066 48.3495L77.6644 2.63281Z" fill="#B3B3B3"/>
<path d="M92.1862 11.3407H147.26V118.856L140.985 129.877L127.176 126.612V91.8619L117.558 85.1132H109.749L102.79 89.8754V106.965L97.0086 115.537L82.7607 110.366L80.8701 100.08L127.176 46.499L92.1862 11.3407Z" fill="#E6AE48"/>
<path d="M149.998 115.917V13.8981C149.998 10.8775 147.532 8.42844 144.49 8.42844H115.83H113.008H89.8553L84.2384 2.84992C81.745 0.373596 77.6898 0.373596 75.1965 2.84992L46.2623 31.5861C45.7691 31.4773 45.2485 31.3956 44.7279 31.3956C43.0291 31.3956 41.4125 32.0487 40.2069 33.2461L27.6852 45.6821C25.1919 48.1584 25.1919 52.1858 27.6852 54.6349L44.2895 71.1256C37.0012 78.2008 28.4524 84.6229 18.8351 90.2558C16.0403 91.8886 13.3826 93.9567 10.9166 96.4058C6.47781 100.814 3.24464 105.93 1.79245 110.856C0.20326 116.244 0.943054 120.815 3.87483 123.7C5.82021 125.632 10.3686 126.584 13.4374 126.258C25.7125 124.952 34.2338 113.468 34.4256 113.277C35.4942 112.271 36.8642 109.985 37.5492 108.869C43.2209 99.3175 49.6873 90.8273 56.8112 83.5888L73.4155 100.079C74.6211 101.277 76.2102 101.93 77.9364 101.93C78.046 101.93 78.1282 101.93 78.2378 101.903V104.678C78.2378 112.08 84.3206 118.121 91.7733 118.121C99.2261 118.121 105.309 112.08 105.309 104.678V95.4262C105.309 90.6096 109.254 86.6638 114.132 86.6638C118.981 86.6638 122.954 90.5824 122.954 95.4262V118.557C122.954 125.958 129.037 131.999 136.49 131.999C143.943 131.999 150.025 125.958 150.025 118.557L149.998 115.917ZM78.5666 6.16982C79.2242 5.51672 80.2654 5.51672 80.923 6.16982L122.269 47.2332C122.927 47.8863 122.927 48.9203 122.269 49.5734L93.9653 77.6565L82.9232 66.7172L87.6908 61.9822C88.6223 61.057 88.6223 59.5876 87.6908 58.6623C86.7592 57.7371 85.2796 57.7371 84.348 58.6623L79.553 63.3973L62.8392 46.7978L67.6341 42.0628C68.5657 41.1376 68.5657 39.6682 67.6341 38.7429C66.7025 37.8177 65.2229 37.8177 64.2913 38.7429L59.4964 43.4779L56.9482 40.9471L75.7993 22.2523C76.7308 21.3271 76.7308 19.8576 75.7993 18.9324C74.8677 18.0072 73.3881 18.0072 72.4565 18.9324L53.6328 37.6272L50.2353 34.2529L78.5666 6.16982ZM33.494 106.502C32.9734 107.372 32.398 108.243 31.7678 109.114C26.5618 116.135 15.1635 125.686 7.245 120.407C5.32702 119.128 5.29962 115.781 6.36821 112.189C7.5738 108.025 10.396 103.617 14.2867 99.7529C16.4787 97.5759 18.8077 95.7527 21.2737 94.3377C31.2198 88.5142 40.0973 81.8472 47.6597 74.4999L53.4958 80.2961C46.0705 87.7795 39.3575 96.5963 33.494 106.502ZM79.1146 96.7596C78.8132 97.0589 78.3748 97.2494 77.9364 97.2494C77.498 97.2494 77.087 97.0861 76.7582 96.7596L31.028 51.3422C30.3704 50.6891 30.3704 49.6551 31.028 49.002L43.5497 36.566C43.8511 36.2666 44.2895 36.0761 44.7279 36.0761C45.1663 36.0761 45.5773 36.2394 45.9061 36.566L91.6363 81.9833C92.2939 82.6364 92.2939 83.6705 91.6363 84.3235L79.1146 96.7596ZM145.258 115.944V116.38V118.557C145.258 123.373 141.312 127.319 136.435 127.319C131.585 127.319 127.612 123.4 127.612 118.557V95.4262C127.612 88.0244 121.529 81.9833 114.077 81.9833C106.624 81.9833 100.541 88.0244 100.541 95.4262V104.678C100.541 109.495 96.5957 113.441 91.7185 113.441C86.8688 113.441 82.8958 109.522 82.8958 104.678V99.5624L94.8969 87.6434C96.5409 86.0107 97.0889 83.7249 96.5683 81.6295L125.53 52.8661C128.023 50.3898 128.023 46.3624 125.53 43.8861L94.5955 13.1362H113.036H115.858H144.49C144.929 13.1362 145.285 13.4899 145.285 13.9253V115.944H145.258Z" fill="#E6E6E6"/>
<path d="M47.4975 55.6152C46.5659 54.69 45.0863 54.69 44.1547 55.6152C43.2232 56.5404 43.2232 58.0099 44.1547 58.9351L69.1159 83.7255C69.5817 84.1881 70.1845 84.4058 70.7873 84.4058C71.3901 84.4058 71.9929 84.1881 72.4587 83.7255C73.3903 82.8003 73.3903 81.3308 72.4587 80.4056L47.4975 55.6152Z" fill="#B3B3B3"/>
<path d="M131.642 21.2188C131.642 19.9126 130.573 18.8785 129.285 18.8785H129.258C127.943 18.8785 126.901 19.9398 126.901 21.2188C126.901 22.4978 127.97 23.5591 129.285 23.5591C130.573 23.5591 131.642 22.525 131.642 21.2188Z" fill="#E6E6E6"/>
<path d="M136.848 25.2734H136.82H136.793C135.478 25.3006 134.464 26.3619 134.464 27.6409C134.491 28.9199 135.532 29.954 136.848 29.954H136.875C138.19 29.9267 139.231 28.8655 139.204 27.5865C139.204 26.3075 138.135 25.2734 136.848 25.2734Z" fill="#E6E6E6"/>
<path d="M129.285 29.2465C127.97 29.2465 126.901 30.3077 126.901 31.5867C126.901 32.8929 127.97 33.927 129.285 33.927C130.6 33.927 131.642 32.8657 131.642 31.5867C131.642 30.2805 130.573 29.2465 129.285 29.2465Z" fill="#E6E6E6"/>
</svg>
